starttime	seconds	ctime	dtime	ttime	wait
Mon Aug 17 16:43:43 2015	1439840623	0	2688	2688	2687
Mon Aug 17 16:43:43 2015	1439840623	0	2689	2689	2689
Mon Aug 17 16:43:41 2015	1439840621	0	2690	2690	2690
Mon Aug 17 16:43:42 2015	1439840622	0	2692	2692	2691
Mon Aug 17 16:43:44 2015	1439840624	0	2695	2695	2695
Mon Aug 17 16:43:41 2015	1439840621	0	2697	2697	2697
Mon Aug 17 16:43:40 2015	1439840620	0	2699	2699	2699
Mon Aug 17 16:43:41 2015	1439840621	0	2700	2700	2700
Mon Aug 17 16:43:42 2015	1439840622	0	2702	2702	2702
Mon Aug 17 16:43:41 2015	1439840621	0	2702	2702	2702
Mon Aug 17 16:43:44 2015	1439840624	0	2702	2702	2702
Mon Aug 17 16:43:43 2015	1439840623	0	2704	2704	2704
Mon Aug 17 16:43:43 2015	1439840623	1	2704	2705	2704
Mon Aug 17 16:43:44 2015	1439840624	0	2706	2706	2705
Mon Aug 17 16:43:41 2015	1439840621	0	2710	2710	2709
Mon Aug 17 16:43:36 2015	1439840616	0	2711	2711	2711
Mon Aug 17 16:43:30 2015	1439840610	1	2710	2711	2710
Mon Aug 17 16:43:30 2015	1439840610	0	2711	2711	2711
Mon Aug 17 16:43:41 2015	1439840621	0	2714	2714	2714
Mon Aug 17 16:43:32 2015	1439840612	0	2714	2714	2713
Mon Aug 17 16:43:44 2015	1439840624	0	2715	2715	2714
Mon Aug 17 16:43:30 2015	1439840610	0	2717	2717	2716
Mon Aug 17 16:43:29 2015	1439840609	0	2720	2720	2720
Mon Aug 17 16:43:29 2015	1439840609	0	2723	2723	2723
Mon Aug 17 16:43:27 2015	1439840607	0	2726	2726	2725
Mon Aug 17 16:43:27 2015	1439840607	0	2726	2726	2725
Mon Aug 17 16:43:36 2015	1439840616	0	2731	2731	2731
Mon Aug 17 16:43:32 2015	1439840612	0	2732	2732	2731
Mon Aug 17 16:43:44 2015	1439840624	0	2732	2732	2731
Mon Aug 17 16:43:29 2015	1439840609	0	2733	2733	2733
Mon Aug 17 16:43:27 2015	1439840607	0	2733	2733	2733
Mon Aug 17 16:43:30 2015	1439840610	0	2734	2734	2734
Mon Aug 17 16:43:36 2015	1439840616	0	2734	2734	2733
Mon Aug 17 16:43:32 2015	1439840612	0	2736	2736	2735
Mon Aug 17 16:43:28 2015	1439840608	0	2738	2738	2738
Mon Aug 17 16:43:36 2015	1439840616	0	2738	2738	2737
Mon Aug 17 16:43:27 2015	1439840607	1	2737	2738	2737
Mon Aug 17 16:43:27 2015	1439840607	0	2738	2738	2738
Mon Aug 17 16:43:39 2015	1439840619	0	2739	2739	2739
Mon Aug 17 16:43:30 2015	1439840610	0	2740	2740	2740
Mon Aug 17 16:43:45 2015	1439840625	0	2740	2740	2739
Mon Aug 17 16:43:38 2015	1439840618	0	2743	2743	2742
Mon Aug 17 16:43:30 2015	1439840610	0	2743	2743	2742
Mon Aug 17 16:43:39 2015	1439840619	0	2744	2744	2744
Mon Aug 17 16:43:27 2015	1439840607	0	2745	2745	2744
Mon Aug 17 16:43:38 2015	1439840618	0	2747	2747	2746
Mon Aug 17 16:43:33 2015	1439840613	0	2751	2751	2751
Mon Aug 17 16:43:24 2015	1439840604	0	2751	2751	2750
Mon Aug 17 16:43:24 2015	1439840604	0	2751	2751	2751
Mon Aug 17 16:43:21 2015	1439840601	0	2751	2751	2750
Mon Aug 17 16:43:24 2015	1439840604	0	2752	2752	2751
Mon Aug 17 16:43:24 2015	1439840604	0	2752	2752	2751
Mon Aug 17 16:43:38 2015	1439840618	0	2753	2753	2752
Mon Aug 17 16:43:35 2015	1439840615	1	2754	2755	2753
Mon Aug 17 16:43:24 2015	1439840604	0	2759	2759	2759
Mon Aug 17 16:43:39 2015	1439840619	0	2762	2762	2762
Mon Aug 17 16:43:38 2015	1439840618	0	2762	2762	2762
Mon Aug 17 16:43:38 2015	1439840618	0	2765	2765	2764
Mon Aug 17 16:43:24 2015	1439840604	0	2771	2771	2771
Mon Aug 17 16:43:38 2015	1439840618	0	2777	2777	2776
Mon Aug 17 16:43:18 2015	1439840598	0	2792	2792	2791
Mon Aug 17 16:43:18 2015	1439840598	0	2793	2793	2792
Mon Aug 17 16:43:18 2015	1439840598	0	2794	2794	2794
Mon Aug 17 16:43:18 2015	1439840598	0	2795	2795	2794
Mon Aug 17 16:43:32 2015	1439840612	0	2804	2804	2803
Mon Aug 17 16:43:35 2015	1439840615	0	2807	2807	2807
Mon Aug 17 16:43:35 2015	1439840615	0	2812	2812	2812
Mon Aug 17 16:43:35 2015	1439840615	0	2814	2814	2813
Mon Aug 17 16:43:33 2015	1439840613	0	2816	2816	2816
Mon Aug 17 16:43:33 2015	1439840613	0	2827	2827	2827
Mon Aug 17 16:43:35 2015	1439840615	0	2858	2858	2858
Mon Aug 17 16:43:38 2015	1439840618	0	2863	2863	2862
Mon Aug 17 16:43:35 2015	1439840615	0	2866	2866	2865
Mon Aug 17 16:43:33 2015	1439840613	0	2870	2870	2870
Mon Aug 17 16:43:15 2015	1439840595	0	3051	3051	3051
Mon Aug 17 16:43:15 2015	1439840595	0	3052	3052	3051
Mon Aug 17 16:43:15 2015	1439840595	0	3052	3052	3051
Mon Aug 17 16:43:15 2015	1439840595	0	3052	3052	3051
Mon Aug 17 16:43:15 2015	1439840595	0	3052	3052	3051
Mon Aug 17 16:43:15 2015	1439840595	0	3052	3052	3051
Mon Aug 17 16:43:15 2015	1439840595	0	3052	3052	3051
Mon Aug 17 16:43:15 2015	1439840595	0	3052	3052	3051
Mon Aug 17 16:43:15 2015	1439840595	0	3053	3053	3051
Mon Aug 17 16:43:15 2015	1439840595	0	3053	3053	3051
Mon Aug 17 16:43:24 2015	1439840604	0	3096	3096	3096
Mon Aug 17 16:43:21 2015	1439840601	0	3112	3112	3112
Mon Aug 17 16:43:21 2015	1439840601	0	3115	3115	3114
Mon Aug 17 16:43:41 2015	1439840621	0	3238	3238	3238
Mon Aug 17 16:43:32 2015	1439840612	0	3376	3376	3376
Mon Aug 17 16:43:21 2015	1439840601	0	3479	3479	3479
Mon Aug 17 16:43:33 2015	1439840613	1	3796	3797	3796
Mon Aug 17 16:43:24 2015	1439840604	0	5773	5773	5773
Mon Aug 17 16:43:24 2015	1439840604	1	5774	5775	5773
Mon Aug 17 16:43:18 2015	1439840598	0	5785	5785	5785
Mon Aug 17 16:43:18 2015	1439840598	0	5788	5788	5788
Mon Aug 17 16:43:18 2015	1439840598	0	5789	5789	5788
Mon Aug 17 16:43:18 2015	1439840598	0	5789	5789	5788
Mon Aug 17 16:43:18 2015	1439840598	0	6123	6123	6123
Mon Aug 17 16:43:18 2015	1439840598	1	6195	6196	6195
Mon Aug 17 16:43:25 2015	1439840605	0	8856	8856	8856
